1,0,0,テクノロジ系
1,1,0,基礎理論
1,2,0,アルゴリズムとプログラミング
1,3,0,コンピュータ構成要素
1,4,0,システム構成要素
1,5,0,ソフトウェア
1,6,0,ハードウェア
1,7,0,ヒューマンインタフェース
1,8,0,マルチメディア
1,9,0,データベース
1,10,0,ネットワーク
1,11,0,セキュリティ
1,12,0,システム開発技術
1,13,0,ソフトウェア開発管理技術
2,0,0,マネジメント系
2,1,0,プロジェクトマネジメント
2,2,0,サービスマネジメント
2,3,0,システム監査
3,0,0,ストラテジ系
3,1,0,システム戦略
3,2,0,システム企画
3,3,0,経営戦略マネジメント
3,4,0,技術戦略マネジメント
3,5,0,ビジネスインダストリ
3,6,0,企業活動
3,7,0,法務